fir-dev/fir/fir.vcd
$date
   Sat Oct 14 13:38:46 2023
$end
$version
  2022.1
$end
$timescale
  1ps
$end
$scope module fir_tb $end
$var wire 1 ! awready $end
$var wire 1 " wready $end
$var reg 1 # awvalid $end
$var reg 12 $ awaddr [11:0] $end
$var reg 1 % wvalid $end
$var reg 32 & wdata [31:0] $end
$var wire 1 ' arready $end
$var reg 1 ( rready $end
$var reg 1 ) arvalid $end
$var reg 12 * araddr [11:0] $end
$var wire 1 + rvalid $end
$var wire 32 , rdata [31:0] $end
$var reg 1 - ss_tvalid $end
$var reg 32 . ss_tdata [31:0] $end
$var reg 1 / ss_tlast $end
$var wire 1 0 ss_tready $end
$var reg 1 1 sm_tready $end
$var wire 1 2 sm_tvalid $end
$var wire 32 3 sm_tdata [31:0] $end
$var wire 1 4 sm_tlast $end
$var reg 1 5 axis_clk $end
$var reg 1 6 axis_rst_n $end
$var wire 4 7 tap_WE [3:0] $end
$var wire 1 8 tap_EN $end
$var wire 32 9 tap_Di [31:0] $end
$var wire 12 : tap_A [11:0] $end
$var wire 32 ; tap_Do [31:0] $end
$var wire 4 < data_WE [3:0] $end
$var wire 1 = data_EN $end
$var wire 32 > data_Di [31:0] $end
$var wire 12 ? data_A [11:0] $end
$var wire 32 @ data_Do [31:0] $end
$var reg 1 A error_coef $end
$var reg 32 B data_length [31:0] $end
$var integer 32 C Din [31:0] $end
$var integer 32 D golden [31:0] $end
$var integer 32 E input_data [31:0] $end
$var integer 32 F golden_data [31:0] $end
$var integer 32 G m [31:0] $end
$var integer 32 H i [31:0] $end
$var integer 32 I k [31:0] $end
$var reg 1 J error $end
$var integer 32 K timeout [31:0] $end
$scope module fir_DUT $end
$var reg 1 L awready $end
$var reg 1 M wready $end
$var wire 1 N awvalid $end
$var wire 12 O awaddr [11:0] $end
$var wire 1 P wvalid $end
$var wire 32 Q wdata [31:0] $end
$var reg 1 R arready $end
$var wire 1 S rready $end
$var wire 1 T arvalid $end
$var wire 12 U araddr [11:0] $end
$var reg 1 V rvalid $end
$var reg 32 W rdata [31:0] $end
$var wire 1 X ss_tvalid $end
$var wire 32 Y ss_tdata [31:0] $end
$var wire 1 Z ss_tlast $end
$var reg 1 [ ss_tready $end
$var wire 1 \ sm_tready $end
$var reg 1 ] sm_tvalid $end
$var reg 32 ^ sm_tdata [31:0] $end
$var reg 1 _ sm_tlast $end
$var reg 4 ` tap_WE [3:0] $end
$var reg 1 a tap_EN $end
$var reg 32 b tap_Di [31:0] $end
$var reg 12 c tap_A [11:0] $end
$var wire 32 ; tap_Do [31:0] $end
$var reg 4 d data_WE [3:0] $end
$var reg 1 e data_EN $end
$var reg 32 f data_Di [31:0] $end
$var reg 12 g data_A [11:0] $end
$var wire 32 @ data_Do [31:0] $end
$var wire 1 h axis_clk $end
$var wire 1 i axis_rst_n $end
$var reg 3 j FIR_STATE [2:0] $end
$var integer 32 k next_state_FIR [31:0] $end
$var reg 1 l ap_start $end
$var reg 1 m ap_idle $end
$var reg 1 n ap_done $end
$var reg 2 o addr_reg_R [1:0] $end
$var reg 4 p tap_count [3:0] $end
$var reg 4 q data_count [3:0] $end
$var reg 1 r AWW_STATE $end
$var integer 32 s next_state_AWW [31:0] $end
$var reg 1 t ARR_STATE $end
$var integer 32 u next_state_ARR [31:0] $end
$var reg 2 v addr_reg_W [1:0] $end
$var reg 32 w data_length [31:0] $end
$var reg 2 x WoR_tap [1:0] $end
$var reg 1 y Resetn_fir $end
$var wire 1 z Done_fir $end
$var wire 32 { Y [31:0] $end
$var reg 32 | Y_reg [31:0] $end
$var reg 2 } Last [1:0] $end
$scope module FIR_kernel $end
$var wire 32 @ X [31:0] $end
$var wire 32 ; tap [31:0] $end
$var wire 1 h CLK $end
$var wire 1 ~ Resetn $end
$var reg 32 !! Y [31:0] $end
$var wire 1 z Done $end
$var reg 4 "! Done_count [3:0] $end
$upscope $end
$upscope $end
$scope module tap_RAM $end
$var wire 1 #! CLK $end
$var wire 4 7 WE [3:0] $end
$var wire 1 8 EN $end
$var wire 32 9 Di [31:0] $end
$var wire 32 ; Do [31:0] $end
$var wire 12 : A [11:0] $end
$var reg 12 $! r_A [11:0] $end
$scope begin Block25_23 $end
$var integer 32 %! i [31:0] $end
$upscope $end
$upscope $end
$scope module data_RAM $end
$var wire 1 &! CLK $end
$var wire 4 < WE [3:0] $end
$var wire 1 = EN $end
$var wire 32 > Di [31:0] $end
$var wire 32 @ Do [31:0] $end
$var wire 12 ? A [11:0] $end
$var reg 12 '! r_A [11:0] $end
$scope begin Block25_23 $end
$var integer 32 (! i [31:0] $end
$upscope $end
$upscope $end
$scope task config_write $end
$var reg 12 )! addr [11:0] $end
$var reg 32 *! data [31:0] $end
$upscope $end
$scope task config_read_check $end
$var reg 12 +! addr [11:0] $end
$var reg 32 ,! exp_data [31:0] $end
$var reg 32 -! mask [31:0] $end
$upscope $end
$scope task ss $end
$var reg 32 .! in1 [31:0] $end
$upscope $end
$scope task sm $end
$var reg 32 /! in2 [31:0] $end
$var reg 32 0! pcnt [31:0] $end
$upscope $end
$upscope $end
$enddefinitions $end
#0
$dumpvars
1!
b0 !!
0"
b1 "!
0#
0#!
bx $
bx $!
0%
b1011 %!
bx &
0&!
1'
bx '!
x(
b1011 (!
x)
b10000 )!
bx *
b1001011000 *!
0+
bx +!
bx ,
bx ,!
1-
bx -!
b1 .
b1 .!
0/
bx /!
00
bx 0!
11
02
b0 3
04
05
06
b0 7
08
bx 9
b0 :
b0 ;
b0 <
0=
bx >
b0 ?
b0 @
0A
b1001011000 B
b11111111111111111011000111100000 C
b11111111111111111011000111100001 D
b1 E
b1 F
b1001011000 G
b0 H
bx I
0J
b11110100001001000000 K
1L
0M
0N
bx O
0P
bx Q
1R
xS
xT
bx U
0V
bx W
1X
b1 Y
0Z
0[
1\
0]
b0 ^
0_
b0 `
0a
bx b
b0 c
b0 d
0e
bx f
b0 g
0h
0i
b0 j
b0 k
0l
1m
0n
b11 o
b0 p
b0 q
0r
b0 s
0t
b0x u
b11 v
b0 w
b0 x
0y
0z
b0 {
b0 |
b0 }
0~
$end
#5000
b0 !!
b1 "!
1#
1#!
b10000 $
b0 $!
1%
b1001011000 &
1&!
b0 '!
15
b0 ;
b0 @
b11110100001000111111 K
1L
0M
1N
b10000 O
1P
b1001011000 Q
0[
0]
b0 ^
0_
b0 d
0e
1h
b0 j
1m
b11 o
b0 p
b0 q
0r
b1 s
0t
b11 v
b0 w
b0 x
0y
b0 |
#10000
0#!
0&!
05
0h
#15000
0!
b0 !!
1"
b1 "!
1#!
b0 $!
1&!
b0 '!
15
16
b11110100001000111110 K
0L
1M
1R
0V
0[
0]
0_
0e
1h
1i
b0 j
1m
0n
1r
b0 s
xt
b0 u
b1 v
b1001011000 w
b0 x
0y
b0 |
#20000
0#!
0&!
05
0h
#25000
1!
b0 !!
0"
b1 "!
0#
1#!
b0 $!
0%
1&!
b0 '!
b100000 )!
b0 *!
15
b0 I
b11110100001000111101 K
1L
0M
0N
0P
1R
0V
0[
0]
0_
0e
1h
b0 j
1m
0n
0r
b0 s
0t
b0x u
b0 x
0y
b0 |
#30000
0#!
0&!
05
0h
#35000
b0 !!
b1 "!
1#
1#!
b100000 $
b0 $!
1%
b0 &
1&!
b0 '!
15
b11110100001000111100 K
1L
0M
1N
b100000 O
1P
b0 Q
1R
0V
0[
0]
0_
0e
1h
b0 j
1m
0n
0r
b1 s
xt
b0 u
b0 x
0y
b0 |
#40000
0#!
0&!
05
0h
#45000
0!
b0 !!
1"
b1 "!
1#!
b0 $!
1&!
b0 '!
15
b1111 7
18
b0 9
b0 ;
b11110100001000111011 K
0L
1M
1R
0V
0[
0]
0_
b1111 `
1a
b0 b
0e
1h
b0 j
1m
0n
1r
b0 s
0t
b0x u
b10 v
b10 x
0y
b0 |
#50000
0#!
0&!
05
0h
#55000
1!
b0 !!
0"
b1 "!
0#
1#!
b0 $!
0%
1&!
b0 '!
b100100 )!
b11111111111111111111111111110110 *!
15
b0 7
08
b100 :
b0 ;
b1 I
b11110100001000111010 K
1L
0M
0N
0P
1R
0V
0[
0]
0_
b0 `
0a
b100 c
0e
b0 g
1h
b0 j
1m
0n
b1 p
0r
b0 s
xt
b0 u
b0 x
0y
b0 |
#60000
0#!
0&!
05
0h
#65000
b0 !!
b1 "!
1#
1#!
b100100 $
b100 $!
1%
b11111111111111111111111111110110 &
1&!
b0 '!
15
b0 ;
b11110100001000111001 K
1L
0M
1N
b100100 O
1P
b11111111111111111111111111110110 Q
1R
0V
0[
0]
0_
0e
1h
b0 j
1m
0n
0r
b1 s
0t
b0x u
b0 x
0y
b0 |
#70000
0#!
0&!
05
0h
#75000
0!
b0 !!
1"
b1 "!
1#!
b100 $!
1&!
b0 '!
15
b1111 7
18
b11111111111111111111111111110110 9
b0 ;
b11110100001000111000 K
0L
1M
1R
0V
0[
0]
0_
b1111 `
1a
b11111111111111111111111111110110 b
0e
1h
b0 j
1m
0n
1r
b0 s
xt
b0 u
b10 v
b10 x
0y
b0 |
#80000
0#!
0&!
05
0h
#85000
1!
b0 !!
0"
b1 "!
0#
1#!
b100 $!
0%
1&!
b0 '!
b101000 )!
b11111111111111111111111111110111 *!
15
b0 7
08
b1000 :
b0 ;
b10 I
b11110100001000110111 K
1L
0M
0N
0P
1R
0V
0[
0]
0_
b0 `
0a
b1000 c
0e
b0 g
1h
b0 j
1m
0n
b10 p
0r
b0 s
0t
b0x u
b0 x
0y
b0 |
#90000
0#!
0&!
05
0h
#95000
b0 !!
b1 "!
1#
1#!
b101000 $
b1000 $!
1%
b11111111111111111111111111110111 &
1&!
b0 '!
15
b0 ;
b11110100001000110110 K
1L
0M
1N
b101000 O
1P
b11111111111111111111111111110111 Q
1R
0V
0[
0]
0_
0e
1h
b0 j
1m
0n
0r
b1 s
xt
b0 u
b0 x
0y
b0 |
#100000
0#!
0&!
05
0h
#105000
0!
b0 !!
1"
b1 "!
1#!
b1000 $!
1&!
b0 '!
15
b1111 7
18
b11111111111111111111111111110111 9
b0 ;
b11110100001000110101 K
0L
1M
1R
0V
0[
0]
0_
b1111 `
1a
b11111111111111111111111111110111 b
0e
1h
b0 j
1m
0n
1r
b0 s
0t
b0x u
b10 v
b10 x
0y
b0 |
#110000
0#!
0&!
05
0h
#115000
1!
b0 !!
0"
b1 "!
0#
1#!
b1000 $!
0%
1&!
b0 '!
b101100 )!
b10111 *!
15
b0 7
08
b1100 :
b0 ;
b11 I
b11110100001000110100 K
1L
0M
0N
0P
1R
0V
0[
0]
0_
b0 `
0a
b1100 c
0e
b0 g
1h
b0 j
1m
0n
b11 p
0r
b0 s
xt
b0 u
b0 x
0y
b0 |
#120000
0#!
0&!
05
0h
#125000
b0 !!
b1 "!
1#
1#!
b101100 $
b1100 $!
1%
b10111 &
1&!
b0 '!
15
b0 ;
b11110100001000110011 K
1L
0M
1N
b101100 O
1P
b10111 Q
1R
0V
0[
0]
0_
0e
1h
b0 j
1m
0n
0r
b1 s
0t
b0x u
b0 x
0y
b0 |
#130000
0#!
0&!
05
0h
#135000
0!
b0 !!
1"
b1 "!
1#!
b1100 $!
1&!
b0 '!
15
b1111 7
18
b10111 9
b0 ;
b11110100001000110010 K
0L
1M
1R
0V
0[
0]
0_
b1111 `
1a
b10111 b
0e
1h
b0 j
1m
0n
1r
b0 s
xt
b0 u
b10 v
b10 x
0y
b0 |
#140000
0#!
0&!
05
0h
#145000
1!
b0 !!
0"
b1 "!
0#
1#!
b1100 $!
0%
1&!
b0 '!
b110000 )!
b111000 *!
15
b0 7
08
b10000 :
b0 ;
b100 I
b11110100001000110001 K
1L
0M
0N
0P
1R
0V
0[
0]
0_
b0 `
0a
b10000 c
0e
b0 g
1h
b0 j
1m
0n
b100 p
0r
b0 s
0t
b0x u
b0 x
0y
b0 |
#150000
0#!
0&!
05
0h
#155000
b0 !!
b1 "!
1#
1#!
b110000 $
b10000 $!
1%
b111000 &
1&!
b0 '!
15
b0 ;
b11110100001000110000 K
1L
0M
1N
b110000 O
1P
b111000 Q
1R
0V
0[
0]
0_
0e
1h
b0 j
1m
0n
0r
b1 s
xt
b0 u
b0 x
0y
b0 |
#160000
0#!
0&!
05
0h
#165000
0!
b0 !!
1"
b1 "!
1#!
b10000 $!
1&!
b0 '!
15
b1111 7
18
b111000 9
b0 ;
b11110100001000101111 K
0L
1M
1R
0V
0[
0]
0_
b1111 `
1a
b111000 b
0e
1h
b0 j
1m
0n
1r
b0 s
0t
b0x u
b10 v
b10 x
0y
b0 |
#170000
0#!
0&!
05
0h
#175000
1!
b0 !!
0"
b1 "!
0#
1#!
b10000 $!
0%
1&!
b0 '!
b110100 )!
b111111 *!
15
b0 7
08
b10100 :
b0 ;
b101 I
b11110100001000101110 K
1L
0M
0N
0P
1R
0V
0[
0]
0_
b0 `
0a
b10100 c
0e
b0 g
1h
b0 j
1m
0n
b101 p
0r
b0 s
xt
b0 u
b0 x
0y
b0 |
#180000
0#!
0&!
05
0h
#185000
b0 !!
b1 "!
1#
1#!
b110100 $
b10100 $!
1%
b111111 &
1&!
b0 '!
15
b0 ;
b11110100001000101101 K
1L
0M
1N
b110100 O
1P
b111111 Q
1R
0V
0[
0]
0_
0e
1h
b0 j
1m
0n
0r
b1 s
0t
b0x u
b0 x
0y
b0 |
#190000
0#!
0&!
05
0h
#195000
0!
b0 !!
1"
b1 "!
1#!
b10100 $!
1&!
b0 '!
15
b1111 7
18
b111111 9
b0 ;
b11110100001000101100 K
0L
1M
1R
0V
0[
0]
0_
b1111 `
1a
b111111 b
0e
1h
b0 j
1m
0n
1r
b0 s
xt
b0 u
b10 v
b10 x
0y
b0 |
#200000
0#!
0&!
05
0h
#205000
1!
b0 !!
0"
b1 "!
0#
1#!
b10100 $!
0%
1&!
b0 '!
b111000 )!
b111000 *!
15
b0 7
08
b11000 :
b0 ;
b110 I
b11110100001000101011 K
1L
0M
0N
0P
1R
0V
0[
0]
0_
b0 `
0a
b11000 c
0e
b0 g
1h
b0 j
1m
0n
b110 p
0r
b0 s
0t
b0x u
b0 x
0y
b0 |
#210000
0#!
0&!
05
0h
#215000
b0 !!
b1 "!
1#
1#!
b111000 $
b11000 $!
1%
b111000 &
1&!
b0 '!
15
b0 ;
b11110100001000101010 K
1L
0M
1N
b111000 O
1P
b111000 Q
1R
0V
0[
0]
0_
0e
1h
b0 j
1m
0n
0r
b1 s
xt
b0 u
b0 x
0y
b0 |
#220000
0#!
0&!
05
0h
#225000
0!
b0 !!
1"
b1 "!
1#!
b11000 $!
1&!
b0 '!
15
b1111 7
18
b111000 9
b0 ;
b11110100001000101001 K
0L
1M
1R
0V
0[
0]
0_
b1111 `
1a
b111000 b
0e
1h
b0 j
1m
0n
1r
b0 s
0t
b0x u
b10 v
b10 x
0y
b0 |
#230000
0#!
0&!
05
0h
#235000
1!
b0 !!
0"
b1 "!
0#
1#!
b11000 $!
0%
1&!
b0 '!
b111100 )!
b10111 *!
15
b0 7
08
b11100 :
b0 ;
b111 I
b11110100001000101000 K
1L
0M
0N
0P
1R
0V
0[
0]
0_
b0 `
0a
b11100 c
0e
b0 g
1h
b0 j
1m
0n
b111 p
0r
b0 s
xt
b0 u
b0 x
0y
b0 |
#240000
0#!
0&!
05
0h
#245000
b0 !!
b1 "!
1#
1#!
b111100 $
b11100 $!
1%
b10111 &
1&!
b0 '!
15
b0 ;
b11110100001000100111 K
1L
0M
1N
b111100 O
1P
b10111 Q
1R
0V
0[
0]
0_
0e
1h
b0 j
1m
0n
0r
b1 s
0t
b0x u
b0 x
0y
b0 |
#250000
0#!
0&!
05
0h
#255000
0!
b0 !!
1"
b1 "!
1#!
b11100 $!
1&!
b0 '!
15
b1111 7
18
b10111 9
b0 ;
b11110100001000100110 K
0L
1M
1R
0V
0[
0]
0_
b1111 `
1a
b10111 b
0e
1h
b0 j
1m
0n
1r
b0 s
xt
b0 u
b10 v
b10 x
0y
b0 |
#260000
0#!
0&!
05
0h
#265000
1!
b0 !!
0"
b1 "!
0#
1#!
b11100 $!
0%
1&!
b0 '!
b1000000 )!
b11111111111111111111111111110111 *!
15
b0 7
08
b100000 :
b0 ;
b1000 I
b11110100001000100101 K
1L
0M
0N
0P
1R
0V
0[
0]
0_
b0 `
0a
b100000 c
0e
b0 g
1h
b0 j
1m
0n
b1000 p
0r
b0 s
0t
b0x u
b0 x
0y
b0 |
#270000
0#!
0&!
05
0h
#275000
b0 !!
b1 "!
1#
1#!
b1000000 $
b100000 $!
1%
b11111111111111111111111111110111 &
1&!
b0 '!
15
b0 ;
b11110100001000100100 K
1L
0M
1N
b1000000 O
1P
b11111111111111111111111111110111 Q
1R
0V
0[
0]
0_
0e
1h
b0 j
1m
0n
0r
b1 s
xt
b0 u
b0 x
0y
b0 |
#280000
0#!
0&!
05
0h
#285000
0!
b0 !!
1"
b1 "!
1#!
b100000 $!
1&!
b0 '!
15
b1111 7
18
b11111111111111111111111111110111 9
b0 ;
b11110100001000100011 K
0L
1M
1R
0V
0[
0]
0_
b1111 `
1a
b11111111111111111111111111110111 b
0e
1h
b0 j
1m
0n
1r
b0 s
0t
b0x u
b10 v
b10 x
0y
b0 |
#290000
0#!
0&!
05
0h
#295000
1!
b0 !!
0"
b1 "!
0#
1#!
b100000 $!
0%
1&!
b0 '!
b1000100 )!
b11111111111111111111111111110110 *!
15
b0 7
08
b100100 :
b0 ;
b1001 I
b11110100001000100010 K
1L
0M
0N
0P
1R
0V
0[
0]
0_
b0 `
0a
b100100 c
0e
b0 g
1h
b0 j
1m
0n
b1001 p
0r
b0 s
xt
b0 u
b0 x
0y
b0 |
#300000
0#!
0&!
05
0h
#305000
b0 !!
b1 "!
1#
1#!
b1000100 $
b100100 $!
1%
b11111111111111111111111111110110 &
1&!
b0 '!
15
b0 ;
b11110100001000100001 K
1L
0M
1N
b1000100 O
1P
b11111111111111111111111111110110 Q
1R
0V
0[
0]
0_
0e
1h
b0 j
1m
0n
0r
b1 s
0t
b0x u
b0 x
0y
b0 |
#310000
0#!
0&!
05
0h
#315000
0!
b0 !!
1"
b1 "!
1#!
b100100 $!
1&!
b0 '!
15
b1111 7
18
b11111111111111111111111111110110 9
b0 ;
b11110100001000100000 K
0L
1M
1R
0V
0[
0]
0_
b1111 `
1a
b11111111111111111111111111110110 b
0e
1h
b0 j
1m
0n
1r
b0 s
xt
b0 u
b10 v
b10 x
0y
b0 |
#320000
0#!
0&!
05
0h
#325000
1!
b0 !!
0"
b1 "!
0#
1#!
b100100 $!
0%
1&!
b0 '!
b1001000 )!
b0 *!
15
b0 7
08
b101000 :
b0 ;
b1010 I
b11110100001000011111 K
1L
0M
0N
0P
1R
0V
0[
0]
0_
b0 `
0a
b101000 c
0e
b0 g
1h
b0 j
1m
0n
b1010 p
0r
b0 s
0t
b0x u
b0 x
0y
b0 |
#330000
0#!
0&!
05
0h
#335000
b0 !!
b1 "!
1#
1#!
b1001000 $
b101000 $!
1%
b0 &
1&!
b0 '!
15
b0 ;
b11110100001000011110 K
1L
0M
1N
b1001000 O
1P
b0 Q
1R
0V
0[
0]
0_
0e
1h
b0 j
1m
0n
0r
b1 s
xt
b0 u
b0 x
0y
b0 |
#340000
0#!
0&!
05
0h
#345000
0!
b0 !!
1"
b1 "!
1#!
b101000 $!
1&!
b0 '!
15
b1111 7
18
b0 9
b0 ;
b11110100001000011101 K
0L
1M
1R
0V
0[
0]
0_
b1111 `
1a
b0 b
0e
1h
b0 j
1m
0n
1r
b0 s
0t
b0x u
b10 v
b10 x
0y
b0 |
#350000
0#!
0&!
05
0h
#355000
1!
b0 !!
0"
b1 "!
0#
1#!
b101000 $!
0%
1&!
b0 '!
0)
b100000 +!
b0 ,!
b11111111111111111111111111111111 -!
15
b0 7
08
b0 :
b0 ;
b0 I
b11110100001000011100 K
1L
0M
0N
0P
1R
0T
0V
0[
0]
0_
b0 `
0a
b0 c
0e
b0 g
1h
b0 j
b0 k
1m
0n
b0 p
0r
b0 s
xt
b0 u
b0 x
0y
b0 |
#360000
0#!
0&!
05
0h
#365000
b0 !!
b1 "!
1#!
b0 $!
1&!
b0 '!
1(
1)
b100000 *
15
b0 ;
b11110100001000011011 K
1R
1S
1T
b100000 U
0V
0[
0]
0_
0e
1h
b0 j
b0 k
1m
0n
0r
0t
b1 u
b0 x
0y
b0 |
#370000
0#!
0&!
05
0h
#375000
b0 !!
b1 "!
1#!
b0 $!
1&!
0'
b0 '!
1+
b0 ,
15
18
b0 ;
b11110100001000011010 K
0R
1V
b0 W
0[
0]
0_
b0 `
1a
0e
1h
b0 j
b0 k
1m
0n
b10 o
0r
1t
b0 u
b1 x
0y
b0 |
#380000
0#!
0&!
05
0h
#385000
b0 !!
b1 "!
1#!
b0 $!
1&!
1'
b0 '!
0)
0+
b100100 +!
b11111111111111111111111111110110 ,!
b11111111111111111111111111111111 -!
15
08
b100 :
b0 ;
b1 I
b11110100001000011001 K
1R
0T
0V
0[
0]
0_
b0 `
0a
b100 c
0e
b0 g
1h
b0 j
b0 k
1m
0n
b1 p
0r
0t
b0 u
b0 x
0y
b0 |
#390000
0#!
0&!
05
0h
#395000
b0 !!
b1 "!
1#!
b100 $!
1&!
b0 '!
1(
1)
b100100 *
15
b0 ;
b11110100001000011000 K
1R
1T
b100100 U
0V
0[
0]
0_
0e
1h
b0 j
b0 k
1m
0n
0r
0t
b1 u
0y
b0 |
#400000
0#!
0&!
05
0h
#405000
b0 !!
b1 "!
1#!
b100 $!
1&!
0'
b0 '!
1+
b11111111111111111111111111110110 ,
15
18
b11111111111111111111111111110110 ;
b11110100001000010111 K
0R
1V
b11111111111111111111111111110110 W
0[
0]
0_
b0 `
1a
0e
1h
b0 j
b0 k
1m
0n
b10 o
0r
1t
b0 u
b1 x
0y
b0 |
#410000
0#!
0&!
05
0h
#415000
b0 !!
b1 "!
1#!
b100 $!
1&!
1'
b0 '!
0)
0+
b101000 +!
b11111111111111111111111111110111 ,!
b11111111111111111111111111111111 -!
15
08
b1000 :
b0 ;
b10 I
b11110100001000010110 K
1R
0T
0V
0[
0]
0_
b0 `
0a
b1000 c
0e
b0 g
1h
b0 j
b0 k
1m
0n
b10 p
0r
0t
b0 u
b0 x
0y
b0 |
#420000
0#!
0&!
05
0h
#425000
b0 !!
b1 "!
1#!
b1000 $!
1&!
b0 '!
1(
1)
b101000 *
15
b0 ;
b11110100001000010101 K
1R
1T
b101000 U
0V
0[
0]
0_
0e
1h
b0 j
b0 k
1m
0n
0r
0t
b1 u
0y
b0 |
#430000
0#!
0&!
05
0h
#435000
b0 !!
b1 "!
1#!
b1000 $!
1&!
0'
b0 '!
1+
b11111111111111111111111111110111 ,
15
18
b11111111111111111111111111110111 ;
b11110100001000010100 K
0R
1V
b11111111111111111111111111110111 W
0[
0]
0_
b0 `
1a
0e
1h
b0 j
b0 k
1m
0n
b10 o
0r
1t
b0 u
b1 x
0y
b0 |
#440000
0#!
0&!
05
0h
#445000
b0 !!
b1 "!
1#!
b1000 $!
1&!
1'
b0 '!
0)
0+
b101100 +!
b10111 ,!
b11111111111111111111111111111111 -!
15
08
b1100 :
b0 ;
b11 I
b11110100001000010011 K
1R
0T
0V
0[
0]
0_
b0 `
0a
b1100 c
0e
b0 g
1h
b0 j
b0 k
1m
0n
b11 p
0r
0t
b0 u
b0 x
0y
b0 |
#450000
0#!
0&!
05
0h
#455000
b0 !!
b1 "!
1#!
b1100 $!
1&!
b0 '!
1(
1)
b101100 *
15
b0 ;
b11110100001000010010 K
1R
1T
b101100 U
0V
0[
0]
0_
0e
1h
b0 j
b0 k
1m
0n
0r
0t
b1 u
0y
b0 |
#460000
0#!
0&!
05
0h
#465000
b0 !!
b1 "!
1#!
b1100 $!
1&!
0'
b0 '!
1+
b10111 ,
15
18
b10111 ;
b11110100001000010001 K
0R
1V
b10111 W
0[
0]
0_
b0 `
1a
0e
1h
b0 j
b0 k
1m
0n
b10 o
0r
1t
b0 u
b1 x
0y
b0 |
#470000
0#!
0&!
05
0h
#475000
b0 !!
b1 "!
1#!
b1100 $!
1&!
1'
b0 '!
0)
0+
b110000 +!
b111000 ,!
b11111111111111111111111111111111 -!
15
08
b10000 :
b0 ;
b100 I
b11110100001000010000 K
1R
0T
0V
0[
0]
0_
b0 `
0a
b10000 c
0e
b0 g
1h
b0 j
b0 k
1m
0n
b100 p
0r
0t
b0 u
b0 x
0y
b0 |
#480000
0#!
0&!
05
0h
#485000
b0 !!
b1 "!
1#!
b10000 $!
1&!
b0 '!
1(
1)
b110000 *
15
b0 ;
b11110100001000001111 K
1R
1T
b110000 U
0V
0[
0]
0_
0e
1h
b0 j
b0 k
1m
0n
0r
0t
b1 u
0y
b0 |
#490000
0#!
0&!
05
0h
#495000
b0 !!
b1 "!
1#!
b10000 $!
1&!
0'
b0 '!
1+
b111000 ,
15
18
b111000 ;
b11110100001000001110 K
0R
1V
b111000 W
0[
0]
0_
b0 `
1a
0e
1h
b0 j
b0 k
1m
0n
b10 o
0r
1t
b0 u
b1 x
0y
b0 |
#500000
0#!
0&!
05
0h
#505000
b0 !!
b1 "!
1#!
b10000 $!
1&!
1'
b0 '!
0)
0+
b110100 +!
b111111 ,!
b11111111111111111111111111111111 -!
15
08
b10100 :
b0 ;
b101 I
b11110100001000001101 K
1R
0T
0V
0[
0]
0_
b0 `
0a
b10100 c
0e
b0 g
1h
b0 j
b0 k
1m
0n
b101 p
0r
0t
b0 u
b0 x
0y
b0 |
#510000
0#!
0&!
05
0h
#515000
b0 !!
b1 "!
1#!
b10100 $!
1&!
b0 '!
1(
1)
b110100 *
15
b0 ;
b11110100001000001100 K
1R
1T
b110100 U
0V
0[
0]
0_
0e
1h
b0 j
b0 k
1m
0n
0r
0t
b1 u
0y
b0 |
#520000
0#!
0&!
05
0h
#525000
b0 !!
b1 "!
1#!
b10100 $!
1&!
0'
b0 '!
1+
b111111 ,
15
18
b111111 ;
b11110100001000001011 K
0R
1V
b111111 W
0[
0]
0_
b0 `
1a
0e
1h
b0 j
b0 k
1m
0n
b10 o
0r
1t
b0 u
b1 x
0y
b0 |
#530000
0#!
0&!
05
0h
#535000
b0 !!
b1 "!
1#!
b10100 $!
1&!
1'
b0 '!
0)
0+
b111000 +!
b111000 ,!
b11111111111111111111111111111111 -!
15
08
b11000 :
b0 ;
b110 I
b11110100001000001010 K
1R
0T
0V
0[
0]
0_
b0 `
0a
b11000 c
0e
b0 g
1h
b0 j
b0 k
1m
0n
b110 p
0r
0t
b0 u
b0 x
0y
b0 |
#540000
0#!
0&!
05
0h
#545000
b0 !!
b1 "!
1#!
b11000 $!
1&!
b0 '!
1(
1)
b111000 *
15
b0 ;
b11110100001000001001 K
1R
1T
b111000 U
0V
0[
0]
0_
0e
1h
b0 j
b0 k
1m
0n
0r
0t
b1 u
0y
b0 |
#550000
0#!
0&!
05
0h
#555000
b0 !!
b1 "!
1#!
b11000 $!
1&!
0'
b0 '!
1+
b111000 ,
15
18
b111000 ;
b11110100001000001000 K
0R
1V
b111000 W
0[
0]
0_
b0 `
1a
0e
1h
b0 j
b0 k
1m
0n
b10 o
0r
1t
b0 u
b1 x
0y
b0 |
#560000
0#!
0&!
05
0h
#565000
b0 !!
b1 "!
1#!
b11000 $!
1&!
1'
b0 '!
0)
0+
b111100 +!
b10111 ,!
b11111111111111111111111111111111 -!
15
08
b11100 :
b0 ;
b111 I
b11110100001000000111 K
1R
0T
0V
0[
0]
0_
b0 `
0a
b11100 c
0e
b0 g
1h
b0 j
b0 k
1m
0n
b111 p
0r
0t
b0 u
b0 x
0y
b0 |
#570000
0#!
0&!
05
0h
#575000
b0 !!
b1 "!
1#!
b11100 $!
1&!
b0 '!
1(
1)
b111100 *
15
b0 ;
b11110100001000000110 K
1R
1T
b111100 U
0V
0[
0]
0_
0e
1h
b0 j
b0 k
1m
0n
0r
0t
b1 u
0y
b0 |
#580000
0#!
0&!
05
0h
#585000
b0 !!
b1 "!
1#!
b11100 $!
1&!
0'
b0 '!
1+
b10111 ,
15
18
b10111 ;
b11110100001000000101 K
0R
1V
b10111 W
0[
0]
0_
b0 `
1a
0e
1h
b0 j
b0 k
1m
0n
b10 o
0r
1t
b0 u
b1 x
0y
b0 |
#590000
0#!
0&!
05
0h
#595000
b0 !!
b1 "!
1#!
b11100 $!
1&!
1'
b0 '!
0)
0+
b1000000 +!
b11111111111111111111111111110111 ,!
b11111111111111111111111111111111 -!
15
08
b100000 :
b0 ;
b1000 I
b11110100001000000100 K
1R
0T
0V
0[
0]
0_
b0 `
0a
b100000 c
0e
b0 g
1h
b0 j
b0 k
1m
0n
b1000 p
0r
0t
b0 u
b0 x
0y
b0 |
#600000
0#!
0&!
05
0h
#605000
b0 !!
b1 "!
1#!
b100000 $!
1&!
b0 '!
1(
1)
b1000000 *
15
b0 ;
b11110100001000000011 K
1R
1T
b1000000 U
0V
0[
0]
0_
0e
1h
b0 j
b0 k
1m
0n
0r
0t
b1 u
0y
b0 |
#610000
0#!
0&!
05
0h
#615000
b0 !!
b1 "!
1#!
b100000 $!
1&!
0'
b0 '!
1+
b11111111111111111111111111110111 ,
15
18
b11111111111111111111111111110111 ;
b11110100001000000010 K
0R
1V
b11111111111111111111111111110111 W
0[
0]
0_
b0 `
1a
0e
1h
b0 j
b0 k
1m
0n
b10 o
0r
1t
b0 u
b1 x
0y
b0 |
#620000
0#!
0&!
05
0h
#625000
b0 !!
b1 "!
1#!
b100000 $!
1&!
1'
b0 '!
0)
0+
b1000100 +!
b11111111111111111111111111110110 ,!
b11111111111111111111111111111111 -!
15
08
b100100 :
b0 ;
b1001 I
b11110100001000000001 K
1R
0T
0V
0[
0]
0_
b0 `
0a
b100100 c
0e
b0 g
1h
b0 j
b0 k
1m
0n
b1001 p
0r
0t
b0 u
b0 x
0y
b0 |
